Die Fossilindustrie und das Referendum zum CO2-Gesetz | Matthias Zaugg
…
# Load Swiss interest groups dataset 
swiss_assocs <- read_excel(paste(getwd(), "Associations_Economic.xlsx", sep="/"), sheet = "Liste")

# filter out Handelskammern
swiss_assocs <- swiss_assocs %>% filter(is.na(Verbandstyp) | Verbandstyp != "Handelskammer")
swiss_assocs <- swiss_assocs %>% filter(is.na(Verbandstyp) | Verbandstyp != "Einzelmitglied")

swiss_assocs %>% nrow()

## [1] 312

swiss_assocs %>% select(Shortname, Name) %>% arrange(Shortname) %>% print()

## # A tibble: 312 × 2
##    Shortname      Name                                                          
##    <chr>          <chr>                                                         
##  1 2rad Schweiz   Branchenverband des Schweizer Fachhandels für Zweiradfahrzeuge
##  2 ACS            Automobil Club Schweiz                                        
##  3 AGV Rheintal   Arbeitgeberverband Rheintal                                   
##  4 AGVS           Auto Gewerbe Verband Schweiz                                  
##  5 AITI           Association of Ticino’s industries                            
##  6 AM Suisse      Arbeitgeberverband Landtechnik, Metallbau, Hufschmiede        
##  7 AM Switzerland Asset Management Association Switzerland                      
##  8 APHM           Association Patronale de l'Horlogerie et de la Microtechnique 
##  9 ASCO           Association of Management Consultants Switzerland             
## 10 ASEPIB         Association Suisse d'Esthéticiennes Propriétaires d'Instituts…
## # ℹ 302 more rows
…
